{
  "localizationObjects": [
    {
      "key": "A70L36M7",
      "text": "KULE DANYCH"
    },
    {
      "key": "H87Q01X7",
      "text": "Wciśnij <sprite index=14> aby spróbować powtórnie"
    },
    {
      "key": "W32T59X7",
      "text": "Wciśnij dowolny przycisk..."
    },
    {
      "key": "M96Z17C3",
      "text": "Poziom ukończony"
    },
    {
      "key": "H94U33M5",
      "text": "Nie żyjesz!"
    },
    {
      "key": "K63B19X6",
      "text": "HAKOWANIE"
    },
    {
      "key": "weapon_name_electron_rifle",
      "text": "Karabin Elektronowy"
    },
    {
      "key": "weapon_name_hacking_device",
      "text": "Urządzenie Hakujące"
    },
    {
      "key": "hacking_attempts",
      "text": "Pozostało"
    },
    {
      "key": "ammo",
      "text": "Amunicja"
    }
  ]
}
